<?xml version="1.0" encoding="UTF-8" standalone="no"?>
<svg
   xmlns:dc="http://purl.org/dc/elements/1.1/"
   xmlns:cc="http://creativecommons.org/ns#"
   xmlns:rdf="http://www.w3.org/1999/02/22-rdf-syntax-ns#"
   xmlns:svg="http://www.w3.org/2000/svg"
   xmlns="http://www.w3.org/2000/svg"
   xmlns:sodipodi="http://sodipodi.sourceforge.net/DTD/sodipodi-0.dtd"
   xmlns:inkscape="http://www.inkscape.org/namespaces/inkscape"
   height="1024"
   width="1024"
   version="1.1"
   viewBox="0 0 1024 1024"
   id="svg16"
   sodipodi:docname="docviewer-app-splash.svg"
   inkscape:version="0.92.3 (2405546, 2018-03-11)">
  <metadata
     id="metadata22">
    <rdf:RDF>
      <cc:Work
         rdf:about="">
        <dc:format>image/svg+xml</dc:format>
        <dc:type
           rdf:resource="http://purl.org/dc/dcmitype/StillImage" />
      </cc:Work>
    </rdf:RDF>
  </metadata>
  <defs
     id="defs20" />
  <sodipodi:namedview
     pagecolor="#ffffff"
     bordercolor="#666666"
     borderopacity="1"
     objecttolerance="10"
     gridtolerance="10"
     guidetolerance="10"
     inkscape:pageopacity="0"
     inkscape:pageshadow="2"
     inkscape:window-width="1853"
     inkscape:window-height="1025"
     id="namedview18"
     showgrid="false"
     inkscape:zoom="1"
     inkscape:cx="325.92642"
     inkscape:cy="462.81571"
     inkscape:window-x="67"
     inkscape:window-y="27"
     inkscape:window-maximized="1"
     inkscape:current-layer="layer1" />
  <g
     inkscape:groupmode="layer"
     id="layer1"
     inkscape:label="background"
     style="display:inline">
    <rect
       style="opacity:1;vector-effect:none;fill:#ffffff;fill-opacity:1;stroke:none;stroke-width:4;stroke-linecap:butt;stroke-linejoin:round;stroke-miterlimit:4;stroke-dasharray:none;stroke-dashoffset:0;stroke-opacity:1;marker:none;paint-order:normal"
       id="rect4532"
       width="336"
       height="304"
       x="344"
       y="359.89999"
       ry="2.7469399" />
    <rect
       style="opacity:1;vector-effect:none;fill:#ffffff;fill-opacity:1;stroke:#ffffff;stroke-width:18;stroke-linecap:butt;stroke-linejoin:round;stroke-miterlimit:4;stroke-dasharray:none;stroke-dashoffset:0;stroke-opacity:1;marker:none;paint-order:normal"
       id="rect823"
       width="435.45602"
       height="393.98398"
       x="294.27197"
       y="314.90799"
       ry="3.560034" />
  </g>
  <g
     inkscape:groupmode="layer"
     id="layer2"
     inkscape:label="icon">
    <path
       style="opacity:0.5;fill:#6b8fea"
       d="m344 359.9v16h336v-16zm0 48v16h336v-16zm0 48v16h336v-16zm0 48v16h336v-16zm0 48v16h336v-16zm0 48v16h336v-16zm0 48v16h168.2v-16z"
       id="path2" />
    <circle
       style="enable-background:accumulate;fill:#fafdff"
       cx="536.1"
       cy="485.8"
       r="110"
       id="circle4" />
    <path
       d="m436.1 585.8 24-24"
       style="stroke-width:24;stroke:#3b63c8"
       id="path6" />
    <circle
       style="stroke-width:16;fill-opacity:0.5429;stroke:#6b8fea;fill:#daf0f9"
       cx="536.1"
       cy="485.8"
       r="110"
       id="circle8" />
    <path
       style="stroke-width:32;stroke:#3957a2"
       d="m381.1 640.8 63-63"
       id="path10" />
    <circle
       style="color:#000000;fill-opacity:0.5429;enable-background:accumulate;fill:#fff"
       cy="454.8"
       cx="567.1"
       r="41.2"
       id="circle12" />
    <path
       style="opacity:0.2;fill:#6b8fe6"
       d="m461.1 395.9a117.2 117.2 0 0 0 -17.42 18.11h185a117.2 117.2 0 0 0 -17.38 -18.11zm-36.57 54.32a117.2 117.2 0 0 0 -4.108 18.11h231.5a117.2 117.2 0 0 0 -4.256 -18.11zm-3.988 54.32a117.2 117.2 0 0 0 4.552 18.11h222.1a117.2 117.2 0 0 0 4.408 -18.11zm24.08 54.32a117.2 117.2 0 0 0 18.17 18.11h146.8a117.2 117.2 0 0 0 17.95 -18.11z"
       id="path14" />
  </g>
</svg>
